…
Visualización (amigable) de la estrutura de datos:

``` r
library(naniar)
bind_shadow(airquality)
```

```
## # A tibble: 153 x 12
##    Ozone Solar.R  Wind  Temp Month   Day Ozone_NA Solar.R_NA Wind_NA Temp_NA
##    <int>   <int> <dbl> <int> <int> <int> <fct>    <fct>      <fct>   <fct>  
##  1    41     190   7.4    67     5     1 !NA      !NA        !NA     !NA    
##  2    36     118   8      72     5     2 !NA      !NA        !NA     !NA    
##  3    12     149  12.6    74     5     3 !NA      !NA        !NA     !NA    
##  4    18     313  11.5    62     5     4 !NA      !NA        !NA     !NA    
##  5    NA      NA  14.3    56     5     5 NA       NA         !NA     !NA    
##  6    28      NA  14.9    66     5     6 !NA      NA         !NA     !NA    
##  7    23     299   8.6    65     5     7 !NA      !NA        !NA     !NA    
##  8    19      99  13.8    59     5     8 !NA      !NA        !NA     !NA    
##  9     8      19  20.1    61     5     9 !NA      !NA        !NA     !NA    
## 10    NA     194   8.6    69     5    10 NA       !NA        !NA     !NA    
## # i 143 more rows
## # i 2 more variables: Month_NA <fct>, Day_NA <fct>
```
…
3. Para obtener el total de las facturas de cada uno de los países:


``` r
res <- invoices %>% group_by(BillingCountry) %>% 
          summarise(n = n(), total = sum(Total, na.rm = TRUE))
# show_query(res)
res  %>% collect
```

```
## # A tibble: 24 x 3
##    BillingCountry     n total
##    <chr>          <int> <dbl>
##  1 Argentina          7  37.6
##  2 Australia          7  37.6
##  3 Austria            7  42.6
##  4 Belgium            7  37.6
##  5 Brazil            35 190. 
##  6 Canada            56 304. 
##  7 Chile              7  46.6
##  8 Czech Republic    14  90.2
##  9 Denmark            7  37.6
## 10 Finland            7  41.6
## # i 14 more rows
```
…
```
## <SQL>
## SELECT `FirstName`, `LastName`, `Country`, `Total`
## FROM `customers`
## INNER JOIN `invoices`
##   ON (`customers`.`CustomerId` = `invoices`.`CustomerId`)
```

``` r
res  %>% collect
```

```
## # A tibble: 412 x 4
##    FirstName LastName  Country Total
##    <chr>     <chr>     <chr>   <dbl>
##  1 Luís      Gonçalves Brazil   3.98
##  2 Luís      Gonçalves Brazil   3.96
##  3 Luís      Gonçalves Brazil   5.94
##  4 Luís      Gonçalves Brazil   0.99
##  5 Luís      Gonçalves Brazil   1.98
##  6 Luís      Gonçalves Brazil  13.9 
##  7 Luís      Gonçalves Brazil   8.91
##  8 Leonie    Köhler    Germany  1.98
##  9 Leonie    Köhler    Germany 13.9 
## 10 Leonie    Köhler    Germany  8.91
## # i 402 more rows
```
…
7.  Listar los géneros musicales por orden decreciente de popularidad 
    (definida la popularidad como el número de canciones de ese género), 
    indicando el porcentaje de las canciones de ese género.

    
    ``` r
    tracks <- tbl(chinook, "tracks")
    tracks %>% inner_join(tbl(chinook, "genres"), by = "GenreId") %>% count(Name.y) %>% 
        arrange(desc(n)) %>% collect %>% mutate(freq = n / sum(n))
    ```
    
    ```
    ## # A tibble: 25 x 3
    ##    Name.y                 n   freq
    ##    <chr>              <int>  <dbl>
    ##  1 Rock                1297 0.370 
    ##  2 Latin                579 0.165 
    ##  3 Metal                374 0.107 
    ##  4 Alternative & Punk   332 0.0948
    ##  5 Jazz                 130 0.0371
    ##  6 TV Shows              93 0.0265
    ##  7 Blues                 81 0.0231
    ##  8 Classical             74 0.0211
    ##  9 Drama                 64 0.0183
    ## 10 R&B/Soul              61 0.0174
    ## # i 15 more rows
    ```

8.  Listar los 10 artistas con mayor número de canciones 
    de forma descendente según el número de canciones.

    
    ``` r
    tracks %>% inner_join(tbl(chinook, "albums"), by = "AlbumId") %>% 
        inner_join(tbl(chinook, "artists"), by = "ArtistId") %>% 
        count(Name.y) %>% arrange(desc(n)) %>% collect
    ```
    
    ```
    ## # A tibble: 204 x 2
    ##    Name.y              n
    ##    <chr>           <int>
    ##  1 Iron Maiden       213
    ##  2 U2                135
    ##  3 Led Zeppelin      114
    ##  4 Metallica         112
    ##  5 Lost               92
    ##  6 Deep Purple        92
    ##  7 Pearl Jam          67
    ##  8 Lenny Kravitz      57
    ##  9 Various Artists    56
    ## 10 The Office         53
    ## # i 194 more rows
    ```
…
