4.2 Manipulación de datos con dplyr y tidyr | Tecnologías de Gestión y Manipulación de Datos
…
Continuamos con el ejemplo de la Sección @ref{missing}.
tidyverse dispone de muchas herramientas para el tratamiento de los datos faltantes.

data("airquality")
datos <- airquality
library(visdat)
vis_dat(airquality)
# vis_miss(airquality)

Visualización (amigable) de la estrutura de datos:

library(naniar)
bind_shadow(airquality)

## # A tibble: 153 x 12
##    Ozone Solar.R  Wind  Temp Month   Day Ozone_NA Solar.R_NA Wind_NA Temp_NA
##    <int>   <int> <dbl> <int> <int> <int> <fct>    <fct>      <fct>   <fct>  
##  1    41     190   7.4    67     5     1 !NA      !NA        !NA     !NA    
##  2    36     118   8      72     5     2 !NA      !NA        !NA     !NA    
##  3    12     149  12.6    74     5     3 !NA      !NA        !NA     !NA    
##  4    18     313  11.5    62     5     4 !NA      !NA        !NA     !NA    
##  5    NA      NA  14.3    56     5     5 NA       NA         !NA     !NA    
##  6    28      NA  14.9    66     5     6 !NA      NA         !NA     !NA    
##  7    23     299   8.6    65     5     7 !NA      !NA        !NA     !NA    
##  8    19      99  13.8    59     5     8 !NA      !NA        !NA     !NA    
##  9     8      19  20.1    61     5     9 !NA      !NA        !NA     !NA    
## 10    NA     194   8.6    69     5    10 NA       !NA        !NA     !NA    
## # i 143 more rows
## # i 2 more variables: Month_NA <fct>, Day_NA <fct>
…
